{"message":"Operation performed successfully","level":"info"}
{"message":"Can't divide by zero","level":"error"}
{"message":"Operation performed successfully","level":"info"}
{"message":"Can't divide by zero","level":"error"}
{"message":"Operation performed successfully","level":"info"}
{"message":"Can't divide by zero","level":"error"}
